<?xml version="1.0" encoding="utf-8"?>
<!-- Generator: Adobe Illustrator 22.0.1, SVG Export Plug-In . SVG Version: 6.00 Build 0)  -->
<svg version="1.1" id="Layer_1" xmlns="http://www.w3.org/2000/svg" xmlns:xlink="http://www.w3.org/1999/xlink" x="0px" y="0px"
	 viewBox="0 0 100 63" style="enable-background:new 0 0 100 63;" xml:space="preserve">
<style type="text/css">
	.st0{fill:#00AEEF;}
	.st1{fill:#FFFFFF;}
	.st2{fill:#1D1D1B;}
</style>
<g>
	<path class="st0" d="M97.8,6.2H69.2c-0.9,0-1.6,0.7-1.6,1.6v28.5c0,0.9,0.7,1.6,1.6,1.6h28.5c0.9,0,1.6-0.7,1.6-1.6V7.8
		C99.3,6.9,98.6,6.2,97.8,6.2L97.8,6.2z"/>
	<path class="st1" d="M97.2,25.1c-1.1-1.5-3.9-1.8-5.5-1.8c-6.3,0-12.4,1.2-17.9,3.3c0-1.6,0-3.3-0.2-4.9c4.2-1.2,11.7-2.2,16.6-1.8
		C94.8,20.3,96.6,22.9,97.2,25.1L97.2,25.1z"/>
	<path class="st1" d="M95.1,20.9c-1.3-1.2-2.3-2.1-6.1-2.6c-3.9-0.6-12.1,0.3-15.7,1.2c-0.3-1.4-0.6-2.9-1.1-4.2
		c2.5-0.4,5.1-0.7,7.7-0.7c2.5,0,5,0.2,7.5,0.6C92.5,16.1,94.1,18.9,95.1,20.9L95.1,20.9z"/>
	<path class="st1" d="M69.4,8.9c13.2-0.3,20.7,5.4,22.1,7c-1.3-1.1-3.8-2-5.9-2.4c-2.6-0.5-5.3-0.8-8.1-0.8c-2,0-4,0.1-6,0.4
		C71,11.9,70.1,10.2,69.4,8.9L69.4,8.9z"/>
	<path class="st1" d="M95.1,33.5c2.1-4.4,1.6-5.2-2.6-4.7c-6.5,0.8-14.7,3.6-20.9,6.9c1.1-2.2,1.7-4.4,1.9-6.4
		c6-2.6,12.5-4.1,19.4-4.3C100.3,24.9,97.6,30.5,95.1,33.5L95.1,33.5z"/>
	<path class="st2" d="M41.4,24.7c0.9-0.1,2.2-0.2,3.7-0.2c1.8,0,3.1,0.2,4,0.9c0.7,0.5,1.1,1.6,1.1,2.6c0,1.4-0.9,2.4-2,2.7v0.1
		c0.5,0.7,3.7,4.8,3.7,4.8h-3.1l-3.3-4.3h-1.4v4.3h-2.8L41.4,24.7L41.4,24.7z M44.1,29.5h1.1c1.4,0,2.2-0.6,2.2-1.6s-0.8-1.5-2-1.5
		c-0.7,0-1.1,0.1-1.3,0.1V29.5L44.1,29.5z M0.6,33c0.8,0.3,1.9,0.7,3.1,0.7c1.3,0,2-0.5,2-1.2s-0.6-1.1-2.1-1.6
		c-2-0.6-3.4-1.6-3.4-3.2c0-1.9,1.8-3.3,4.7-3.3c1.4,0,2.4,0.3,3.1,0.6l-0.6,2c-0.5-0.2-1.4-0.5-2.6-0.5S3,27,3,27.6
		c0,0.7,0.7,1,2.3,1.5c2.2,0.7,3.2,1.7,3.2,3.3c0,1.8-1.6,3.4-5,3.4c-1.4,0-2.8-0.3-3.5-0.7L0.6,33L0.6,33z M16.8,30.9h-4.5v2.6h5.1
		v2h-8v-11H17v2h-4.8v2.3h4.5L16.8,30.9L16.8,30.9z M28.6,35.1c-0.9,0.3-2.5,0.6-4.1,0.6c-2.2,0-3.9-0.5-5-1.5
		c-1.1-0.9-1.8-2.4-1.7-4c0-3.7,3-5.7,7-5.7c1.6,0,2.8,0.3,3.4,0.5l-0.6,2c-0.7-0.3-1.5-0.5-2.9-0.5c-2.3,0-4.1,1.2-4.1,3.6
		c0,2.3,1.6,3.6,3.9,3.6c0.6,0,1.2-0.1,1.4-0.2v-2.3v-1.9h2.7L28.6,35.1L28.6,35.1z M32.6,24.6v6.3c0,1.9,0.8,2.9,2.2,2.9
		c1.5,0,2.3-0.9,2.3-2.9v-6.3h2.8v6.2c0,3.4-1.9,5-5.1,5c-3.1,0-4.9-1.5-4.9-5v-6.1L32.6,24.6L32.6,24.6z M62.8,30
		c0,3.6-2.4,5.8-6,5.8c-3.7,0-5.8-2.5-5.8-5.6c0-3.3,2.4-5.8,6-5.8C60.7,24.4,62.8,26.9,62.8,30L62.8,30z M53.9,30.1
		c0,2.2,1.1,3.7,3,3.7s3-1.6,3-3.7c0-2-1.1-3.7-3-3.7C55,26.4,53.9,28,53.9,30.1L53.9,30.1z"/>
	<path class="st2" d="M9.7,9.3c-1-0.7-2.5-1.1-4.5-1.1C3.5,8.3,2,8.4,0.8,8.5v13h3.1c0-0.2,0-4.8,0-4.8H4c0.3,0,0.7,0.1,1.1,0.1
		c2.1,0,3.7-0.5,4.8-1.4c0.9-0.7,1.3-1.8,1.3-3.1C11.3,11.1,10.7,10,9.7,9.3L9.7,9.3z M5.1,14.7c-0.5,0-0.9,0-1.2-0.1H3.8v-4.1h0.1
		c0.2,0,0.6-0.1,1.4-0.1c1.7,0,2.8,0.8,2.8,2.1C8.2,13.8,7,14.7,5.1,14.7L5.1,14.7z M19.1,8.2c-4.2,0-7.2,2.8-7.2,6.9
		c0,4,2.8,6.7,6.9,6.7c4.4,0,7.2-2.7,7.2-6.9C26.1,11.5,23.9,8.2,19.1,8.2L19.1,8.2z M19,19.6c-2.3,0-3.8-1.8-3.8-4.6
		s1.5-4.7,3.7-4.7s3.7,1.9,3.7,4.6C22.7,17.7,21.3,19.6,19,19.6L19,19.6z M35.5,15.9L35.5,15.9v-0.2h0.1c1.1-0.3,2.3-1.4,2.3-3.2
		c0-1.3-0.5-2.5-1.3-3.1c-1-0.7-2.5-1-4.8-1c-1.6,0-3.2,0.1-4.4,0.3v13h3.1c0-0.2,0-5.3,0-5.3h1.9c0,0,4,5.2,4,5.3h3.4
		C39.2,20.6,36.1,16.7,35.5,15.9L35.5,15.9z M32,14.3h-1.5v-3.9h0.1c0.4-0.1,0.9-0.1,1.6-0.1c1.7,0,2.6,0.7,2.6,2
		C34.8,13.5,33.7,14.3,32,14.3L32,14.3z M49.6,8.4c0,0.2,0,2.1,0,2.3c-0.2,0-4.1,0-4.1,0s0,10.6,0,10.8c-0.2,0-2.9,0-3.2,0
		c0-0.2,0-10.8,0-10.8s-3.8,0-4,0c0-0.2,0-2.1,0-2.3C38.6,8.4,49.4,8.4,49.6,8.4L49.6,8.4z M56.4,8.2c-4.2,0-7.2,2.8-7.2,6.9
		c0,4,2.8,6.7,6.9,6.7c4.4,0,7.2-2.7,7.2-6.9C63.4,11.5,61.2,8.2,56.4,8.2L56.4,8.2z M56.3,19.6c-2.3,0-3.8-1.8-3.8-4.6
		s1.5-4.7,3.7-4.7s3.7,1.9,3.7,4.6C60.1,17.7,58.6,19.6,56.3,19.6L56.3,19.6z"/>
	<path class="st0" d="M96.8,44.5c0-0.2-28.8-0.7-46.9-0.7s-47,0.5-47,0.7s28.8,0.7,46.9,0.7S96.8,44.7,96.8,44.5L96.8,44.5z"/>
	<path class="st2" d="M27.4,55.4c-0.4,0.2-1,0.3-1.6,0.3c-1.7,0-2.3-1.1-2.3-2.4c0-1.1,0.4-2.2,1.1-2.8c0.6-0.5,1.4-0.8,2.1-0.8
		s1.2,0.1,1.5,0.3l0.3-0.7c-0.2-0.1-0.8-0.4-1.6-0.4c-1.1,0-2,0.3-2.8,1c-1,0.8-1.6,2.2-1.6,3.6c0,1.9,1.1,3.1,3,3.1
		c0.8,0,1.5-0.2,1.9-0.4V55.4L27.4,55.4z M31.4,56.5c1,0,1.9-0.4,2.5-1c0.9-0.9,1.4-2.3,1.4-3.6c0-1.6-0.8-3-2.8-3
		c-0.9,0-1.8,0.4-2.5,1c-0.9,0.9-1.4,2.3-1.4,3.6C28.5,55.1,29.4,56.5,31.4,56.5L31.4,56.5L31.4,56.5z M31.5,55.8
		c-1.4,0-2-1.1-2-2.3c0-1,0.4-2.3,1.1-3.1c0.5-0.5,1-0.7,1.7-0.7c1.6,0,2,1.3,2,2.3s-0.4,2.4-1.1,3.1C32.7,55.5,32.1,55.8,31.5,55.8
		L31.5,55.8L31.5,55.8z M36.7,56.4l0.7-3.9c0.2-1,0.3-1.8,0.4-2.4l0,0c0.2,0.7,0.3,1.2,0.7,2.1l1.7,4.2h0.9l1.4-7.4h-0.9L41,52.9
		c-0.2,1-0.3,1.7-0.3,2.3l0,0c-0.2-0.6-0.3-1.2-0.6-2.1L38.3,49h-1l-1.4,7.4H36.7L36.7,56.4z M42.8,56c0.3,0.3,1,0.5,1.8,0.5
		c1.7,0,2.7-1,2.7-2.3c0-0.9-0.5-1.5-1.4-2c-0.8-0.4-1.2-0.8-1.2-1.4s0.5-1.2,1.5-1.2c0.6,0,1,0.2,1.3,0.4l0.3-0.8
		c-0.3-0.2-0.8-0.4-1.5-0.4c-1.4,0-2.5,0.8-2.5,2.2c0,0.8,0.5,1.4,1.5,1.9c0.8,0.4,1.1,0.8,1.1,1.4c0,0.9-0.8,1.4-1.6,1.4
		c-0.6,0-1.2-0.2-1.6-0.5L42.8,56L42.8,56z M51.3,56.5c1,0,1.9-0.4,2.5-1c0.9-0.9,1.4-2.3,1.4-3.6c0-1.6-0.8-3-2.8-3
		c-0.9,0-1.8,0.4-2.5,1c-0.9,0.9-1.4,2.3-1.4,3.6C48.5,55.1,49.4,56.5,51.3,56.5L51.3,56.5L51.3,56.5z M51.4,55.8
		c-1.4,0-2-1.1-2-2.3c0-1,0.4-2.3,1.1-3.1c0.5-0.5,1-0.7,1.7-0.7c1.6,0,2,1.3,2,2.3s-0.4,2.4-1.1,3.1C52.7,55.5,52.1,55.8,51.4,55.8
		L51.4,55.8L51.4,55.8z M53.1,47.3L52,48.6h0.8l1.5-1.3H53.1L53.1,47.3z M55.8,56.4h0.9l0.6-3.2h0.8c0.7,0,1.1,0.4,1.2,1.4
		c0.1,0.9,0.1,1.6,0.2,1.8h0.9c-0.1-0.3-0.2-1-0.2-2c-0.1-0.8-0.3-1.3-0.8-1.5l0,0c0.9-0.3,1.8-1.1,1.8-2.2c0-0.5-0.2-0.9-0.6-1.2
		c-0.4-0.4-1-0.5-1.8-0.5c-0.5,0-1.2,0.1-1.6,0.2L55.8,56.4L55.8,56.4z M58,49.7c0.2,0,0.4-0.1,0.8-0.1c0.8,0,1.4,0.4,1.4,1.2
		c0,0.9-0.8,1.7-1.9,1.7h-0.8L58,49.7L58,49.7z M66.8,55.4c-0.4,0.2-1,0.3-1.6,0.3c-1.7,0-2.3-1.1-2.3-2.4c0-1.1,0.4-2.2,1.1-2.8
		c0.6-0.5,1.4-0.8,2.1-0.8s1.2,0.1,1.5,0.3l0.3-0.7c-0.2-0.1-0.8-0.4-1.6-0.4c-1.1,0-2,0.3-2.8,1c-1,0.8-1.6,2.2-1.6,3.6
		c0,1.9,1.1,3.1,3,3.1c0.8,0,1.5-0.2,1.9-0.4L66.8,55.4L66.8,55.4z M69.4,49L68,56.4h0.9l1.4-7.4H69.4L69.4,49z M73.8,56.5
		c1,0,1.9-0.4,2.5-1c0.9-0.9,1.4-2.3,1.4-3.6c0-1.6-0.8-3-2.8-3c-0.9,0-1.8,0.4-2.5,1c-0.9,0.9-1.4,2.3-1.4,3.6
		C70.9,55.1,71.9,56.5,73.8,56.5L73.8,56.5L73.8,56.5z M73.9,55.8c-1.4,0-2-1.1-2-2.3c0-1,0.4-2.3,1.1-3.1c0.5-0.5,1-0.7,1.7-0.7
		c1.6,0,2,1.3,2,2.3s-0.4,2.4-1.1,3.1C75.1,55.5,74.5,55.8,73.9,55.8L73.9,55.8L73.9,55.8z"/>
</g>
</svg>
